[
    {
        "id": 1,
        "title": "O céu não é o limite",
        "created_at": "2019-09-01T18:50:17.623Z",
        "updated_at": "2019-09-01T18:50:17.623Z",
        "options": [
            {
                "id": 1,
                "answer": "Ter preguiça",
                "value": 0,
                "question_id": 1,
                "created_at": "2019-09-01T18:50:17.657Z",
                "updated_at": "2019-09-01T18:50:17.657Z"
            },
            {
                "id": 2,
                "answer": "Quando der certo a gente faz",
                "value": 1,
                "question_id": 1,
                "created_at": "2019-09-01T18:50:17.665Z",
                "updated_at": "2019-09-01T18:50:17.665Z"
            },
            {
                "id": 3,
                "answer": "Vamo pra cima familia",
                "value": 3,
                "question_id": 1,
                "created_at": "2019-09-01T18:50:17.673Z",
                "updated_at": "2019-09-01T18:50:17.673Z"
            },
            {
                "id": 4,
                "answer": "Se der, for viavel a gente faz",
                "value": 2,
                "question_id": 1,
                "created_at": "2019-09-01T18:50:17.682Z",
                "updated_at": "2019-09-01T18:50:17.682Z"
            }
        ]
    },
    {
        "id": 2,
        "title": "Apaixonados pela missão",
        "created_at": "2019-09-01T18:50:17.688Z",
        "updated_at": "2019-09-01T18:50:17.688Z",
        "options": [
            {
                "id": 5,
                "answer": "Projetos nada mais sao do que numeros",
                "value": 0,
                "question_id": 2,
                "created_at": "2019-09-01T18:50:17.696Z",
                "updated_at": "2019-09-01T18:50:17.696Z"
            },
            {
                "id": 6,
                "answer": "Dinheiro é bom e é isto",
                "value": 1,
                "question_id": 2,
                "created_at": "2019-09-01T18:50:17.704Z",
                "updated_at": "2019-09-01T18:50:17.704Z"
            },
            {
                "id": 7,
                "answer": "Se meu projeto nao ajudar meu cliente entao nao fiz nada",
                "value": 3,
                "question_id": 2,
                "created_at": "2019-09-01T18:50:17.711Z",
                "updated_at": "2019-09-01T18:50:17.711Z"
            },
            {
                "id": 8,
                "answer": "Se eu entender o que esta no codigo entao ta show",
                "value": 2,
                "question_id": 2,
                "created_at": "2019-09-01T18:50:17.719Z",
                "updated_at": "2019-09-01T18:50:17.719Z"
            }
        ]
    },
    {
        "id": 3,
        "title": "Ohana",
        "created_at": "2019-09-01T18:50:17.724Z",
        "updated_at": "2019-09-01T18:50:17.724Z",
        "options": [
            {
                "id": 9,
                "answer": "Ta com problema? Se vira filhao",
                "value": 0,
                "question_id": 3,
                "created_at": "2019-09-01T18:50:17.733Z",
                "updated_at": "2019-09-01T18:50:17.733Z"
            },
            {
                "id": 10,
                "answer": "Voce é meu irmao de batalha, to contigo e nao solto",
                "value": 3,
                "question_id": 3,
                "created_at": "2019-09-01T18:50:17.748Z",
                "updated_at": "2019-09-01T18:50:17.748Z"
            },
            {
                "id": 11,
                "answer": "Voce é da gti, eu tambem entao tudo certo",
                "value": 2,
                "question_id": 3,
                "created_at": "2019-09-01T18:50:17.756Z",
                "updated_at": "2019-09-01T18:50:17.756Z"
            },
            {
                "id": 12,
                "answer": "Fora da Gti nem olho",
                "value": 1,
                "question_id": 3,
                "created_at": "2019-09-01T18:50:17.763Z",
                "updated_at": "2019-09-01T18:50:17.763Z"
            }
        ]
    },
    {
        "id": 4,
        "title": "Integridade",
        "created_at": "2019-09-01T18:50:17.768Z",
        "updated_at": "2019-09-01T18:50:17.768Z",
        "options": [
            {
                "id": 13,
                "answer": "Furar a fila do ru",
                "value": 0,
                "question_id": 4,
                "created_at": "2019-09-01T18:50:17.775Z",
                "updated_at": "2019-09-01T18:50:17.775Z"
            },
            {
                "id": 14,
                "answer": "Farol amarelo pra mim é verde",
                "value": 2,
                "question_id": 4,
                "created_at": "2019-09-01T18:50:17.781Z",
                "updated_at": "2019-09-01T18:50:17.781Z"
            },
            {
                "id": 15,
                "answer": "Clonar cartao de credito",
                "value": 1,
                "question_id": 4,
                "created_at": "2019-09-01T18:50:17.787Z",
                "updated_at": "2019-09-01T18:50:17.787Z"
            },
            {
                "id": 16,
                "answer": "Sou integro",
                "value": 3,
                "question_id": 4,
                "created_at": "2019-09-01T18:50:17.794Z",
                "updated_at": "2019-09-01T18:50:17.794Z"
            }
        ]
    },
    {
        "id": 5,
        "title": "Ser capitão da nave",
        "created_at": "2019-09-01T18:50:17.799Z",
        "updated_at": "2019-09-01T18:50:17.799Z",
        "options": [
            {
                "id": 17,
                "answer": "Eu serei o lider que eu quero pra mim",
                "value": 3,
                "question_id": 5,
                "created_at": "2019-09-01T18:50:17.806Z",
                "updated_at": "2019-09-01T18:50:17.806Z"
            },
            {
                "id": 18,
                "answer": "Eu nao sabia, entao nao fiz",
                "value": 0,
                "question_id": 5,
                "created_at": "2019-09-01T18:50:17.812Z",
                "updated_at": "2019-09-01T18:50:17.812Z"
            },
            {
                "id": 19,
                "answer": "Ve la, depois me conta",
                "value": 1,
                "question_id": 5,
                "created_at": "2019-09-01T18:50:17.819Z",
                "updated_at": "2019-09-01T18:50:17.819Z"
            },
            {
                "id": 20,
                "answer": "To so esperando meu estagio aprovar pra sair da GT",
                "value": 2,
                "question_id": 5,
                "created_at": "2019-09-01T18:50:17.826Z",
                "updated_at": "2019-09-01T18:50:17.826Z"
            }
        ]
    }
]